// Jest Snapshot v1, https://goo.gl/fbAQLP

exports[`GameOver Checked GameOver render correctly 1`] = `
<span
  className="Disk"
  style={
    Object {
      "backgroundColor": undefined,
    }
  }
/>
`;
