// Jest Snapshot v1, https://goo.gl/fbAQLP

exports[`Jeu-state Checked Jeu-state render correctly 1`] = `
<section
  className="Game container"
>
  
  <article
    className="row"
  >
    <div
      className="rowTurn"
    >
      <div
        className="Board"
      >
        <table
          className="gameboard"
        >
          <thead>
            <tr>
              <th
                className="repere"
                scope="col"
              >
                A
              </th>
              <th
                className="repere"
                scope="col"
              >
                B
              </th>
              <th
                className="repere"
                scope="col"
              >
                C
              </th>
              <th
                className="repere"
                scope="col"
              >
                D
              </th>
              <th
                className="repere"
                scope="col"
              >
                E
              </th>
              <th
                className="repere"
                scope="col"
              >
                F
              </th>
              <th
                className="repere"
                scope="col"
              >
                G
              </th>
              <th
                className="repere"
                scope="col"
              >
                H
              </th>
            </tr>
          </thead>
          <tbody>
            <tr>
              <td
                className="Cell Cell--vacant"
                onClick={[Function]}
                onMouseEnter={[Function]}
                onMouseLeave={[Function]}
              >
                <span
                  className="Disk"
                  style={
                    Object {
                      "backgroundColor": null,
                    }
                  }
                />
              </td>
              <td
                className="Cell Cell--vacant"
                onClick={[Function]}
                onMouseEnter={[Function]}
                onMouseLeave={[Function]}
              >
                <span
                  className="Disk"
                  style={
                    Object {
                      "backgroundColor": null,
                    }
                  }
                />
              </td>
              <td
                className="Cell Cell--vacant"
                onClick={[Function]}
                onMouseEnter={[Function]}
                onMouseLeave={[Function]}
              >
                <span
                  className="Disk"
                  style={
                    Object {
                      "backgroundColor": null,
                    }
                  }
                />
              </td>
              <td
                className="Cell Cell--vacant"
                onClick={[Function]}
                onMouseEnter={[Function]}
                onMouseLeave={[Function]}
              >
                <span
                  className="Disk"
                  style={
                    Object {
                      "backgroundColor": null,
                    }
                  }
                />
              </td>
              <td
                className="Cell Cell--vacant"
                onClick={[Function]}
                onMouseEnter={[Function]}
                onMouseLeave={[Function]}
              >
                <span
                  className="Disk"
                  style={
                    Object {
                      "backgroundColor": null,
                    }
                  }
                />
              </td>
              <td
                className="Cell Cell--vacant"
                onClick={[Function]}
                onMouseEnter={[Function]}
                onMouseLeave={[Function]}
              >
                <span
                  className="Disk"
                  style={
                    Object {
                      "backgroundColor": null,
                    }
                  }
                />
              </td>
              <td
                className="Cell Cell--vacant"
                onClick={[Function]}
                onMouseEnter={[Function]}
                onMouseLeave={[Function]}
              >
                <span
                  className="Disk"
                  style={
                    Object {
                      "backgroundColor": null,
                    }
                  }
                />
              </td>
              <td
                className="Cell Cell--vacant"
                onClick={[Function]}
                onMouseEnter={[Function]}
                onMouseLeave={[Function]}
              >
                <span
                  className="Disk"
                  style={
                    Object {
                      "backgroundColor": null,
                    }
                  }
                />
              </td>
            </tr>
            <tr>
              <td
                className="Cell Cell--vacant"
                onClick={[Function]}
                onMouseEnter={[Function]}
                onMouseLeave={[Function]}
              >
                <span
                  className="Disk"
                  style={
                    Object {
                      "backgroundColor": null,
                    }
                  }
                />
              </td>
              <td
                className="Cell Cell--vacant"
                onClick={[Function]}
                onMouseEnter={[Function]}
                onMouseLeave={[Function]}
              >
                <span
                  className="Disk"
                  style={
                    Object {
                      "backgroundColor": null,
                    }
                  }
                />
              </td>
              <td
                className="Cell Cell--vacant"
                onClick={[Function]}
                onMouseEnter={[Function]}
                onMouseLeave={[Function]}
              >
                <span
                  className="Disk"
                  style={
                    Object {
                      "backgroundColor": null,
                    }
                  }
                />
              </td>
              <td
                className="Cell Cell--vacant"
                onClick={[Function]}
                onMouseEnter={[Function]}
                onMouseLeave={[Function]}
              >
                <span
                  className="Disk"
                  style={
                    Object {
                      "backgroundColor": null,
                    }
                  }
                />
              </td>
              <td
                className="Cell Cell--vacant"
                onClick={[Function]}
                onMouseEnter={[Function]}
                onMouseLeave={[Function]}
              >
                <span
                  className="Disk"
                  style={
                    Object {
                      "backgroundColor": null,
                    }
                  }
                />
              </td>
              <td
                className="Cell Cell--vacant"
                onClick={[Function]}
                onMouseEnter={[Function]}
                onMouseLeave={[Function]}
              >
                <span
                  className="Disk"
                  style={
                    Object {
                      "backgroundColor": null,
                    }
                  }
                />
              </td>
              <td
                className="Cell Cell--vacant"
                onClick={[Function]}
                onMouseEnter={[Function]}
                onMouseLeave={[Function]}
              >
                <span
                  className="Disk"
                  style={
                    Object {
                      "backgroundColor": null,
                    }
                  }
                />
              </td>
              <td
                className="Cell Cell--vacant"
                onClick={[Function]}
                onMouseEnter={[Function]}
                onMouseLeave={[Function]}
              >
                <span
                  className="Disk"
                  style={
                    Object {
                      "backgroundColor": null,
                    }
                  }
                />
              </td>
            </tr>
            <tr>
              <td
                className="Cell Cell--vacant"
                onClick={[Function]}
                onMouseEnter={[Function]}
                onMouseLeave={[Function]}
              >
                <span
                  className="Disk"
                  style={
                    Object {
                      "backgroundColor": null,
                    }
                  }
                />
              </td>
              <td
                className="Cell Cell--vacant"
                onClick={[Function]}
                onMouseEnter={[Function]}
                onMouseLeave={[Function]}
              >
                <span
                  className="Disk"
                  style={
                    Object {
                      "backgroundColor": null,
                    }
                  }
                />
              </td>
              <td
                className="Cell Cell--vacant"
                onClick={[Function]}
                onMouseEnter={[Function]}
                onMouseLeave={[Function]}
              >
                <span
                  className="Disk"
                  style={
                    Object {
                      "backgroundColor": null,
                    }
                  }
                />
              </td>
              <td
                className="Cell Cell--vacant"
                onClick={[Function]}
                onMouseEnter={[Function]}
                onMouseLeave={[Function]}
              >
                <span
                  className="Disk"
                  style={
                    Object {
                      "backgroundColor": null,
                    }
                  }
                />
              </td>
              <td
                className="Cell Cell--vacant Cell--allowed"
                onClick={[Function]}
                onMouseEnter={[Function]}
                onMouseLeave={[Function]}
              >
                <span
                  className="Disk"
                  style={
                    Object {
                      "backgroundColor": null,
                    }
                  }
                />
              </td>
              <td
                className="Cell Cell--vacant"
                onClick={[Function]}
                onMouseEnter={[Function]}
                onMouseLeave={[Function]}
              >
                <span
                  className="Disk"
                  style={
                    Object {
                      "backgroundColor": null,
                    }
                  }
                />
              </td>
              <td
                className="Cell Cell--vacant"
                onClick={[Function]}
                onMouseEnter={[Function]}
                onMouseLeave={[Function]}
              >
                <span
                  className="Disk"
                  style={
                    Object {
                      "backgroundColor": null,
                    }
                  }
                />
              </td>
              <td
                className="Cell Cell--vacant"
                onClick={[Function]}
                onMouseEnter={[Function]}
                onMouseLeave={[Function]}
              >
                <span
                  className="Disk"
                  style={
                    Object {
                      "backgroundColor": null,
                    }
                  }
                />
              </td>
            </tr>
            <tr>
              <td
                className="Cell Cell--vacant"
                onClick={[Function]}
                onMouseEnter={[Function]}
                onMouseLeave={[Function]}
              >
                <span
                  className="Disk"
                  style={
                    Object {
                      "backgroundColor": null,
                    }
                  }
                />
              </td>
              <td
                className="Cell Cell--vacant"
                onClick={[Function]}
                onMouseEnter={[Function]}
                onMouseLeave={[Function]}
              >
                <span
                  className="Disk"
                  style={
                    Object {
                      "backgroundColor": null,
                    }
                  }
                />
              </td>
              <td
                className="Cell Cell--vacant"
                onClick={[Function]}
                onMouseEnter={[Function]}
                onMouseLeave={[Function]}
              >
                <span
                  className="Disk"
                  style={
                    Object {
                      "backgroundColor": null,
                    }
                  }
                />
              </td>
              <td
                className="Cell Cell--occupied"
                onClick={[Function]}
                onMouseEnter={[Function]}
                onMouseLeave={[Function]}
              >
                <span
                  className="Disk"
                  style={
                    Object {
                      "backgroundColor": "black",
                    }
                  }
                />
              </td>
              <td
                className="Cell Cell--occupied"
                onClick={[Function]}
                onMouseEnter={[Function]}
                onMouseLeave={[Function]}
              >
                <span
                  className="Disk"
                  style={
                    Object {
                      "backgroundColor": "white",
                    }
                  }
                />
              </td>
              <td
                className="Cell Cell--vacant Cell--allowed"
                onClick={[Function]}
                onMouseEnter={[Function]}
                onMouseLeave={[Function]}
              >
                <span
                  className="Disk"
                  style={
                    Object {
                      "backgroundColor": null,
                    }
                  }
                />
              </td>
              <td
                className="Cell Cell--vacant"
                onClick={[Function]}
                onMouseEnter={[Function]}
                onMouseLeave={[Function]}
              >
                <span
                  className="Disk"
                  style={
                    Object {
                      "backgroundColor": null,
                    }
                  }
                />
              </td>
              <td
                className="Cell Cell--vacant"
                onClick={[Function]}
                onMouseEnter={[Function]}
                onMouseLeave={[Function]}
              >
                <span
                  className="Disk"
                  style={
                    Object {
                      "backgroundColor": null,
                    }
                  }
                />
              </td>
            </tr>
            <tr>
              <td
                className="Cell Cell--vacant"
                onClick={[Function]}
                onMouseEnter={[Function]}
                onMouseLeave={[Function]}
              >
                <span
                  className="Disk"
                  style={
                    Object {
                      "backgroundColor": null,
                    }
                  }
                />
              </td>
              <td
                className="Cell Cell--vacant"
                onClick={[Function]}
                onMouseEnter={[Function]}
                onMouseLeave={[Function]}
              >
                <span
                  className="Disk"
                  style={
                    Object {
                      "backgroundColor": null,
                    }
                  }
                />
              </td>
              <td
                className="Cell Cell--vacant Cell--allowed"
                onClick={[Function]}
                onMouseEnter={[Function]}
                onMouseLeave={[Function]}
              >
                <span
                  className="Disk"
                  style={
                    Object {
                      "backgroundColor": null,
                    }
                  }
                />
              </td>
              <td
                className="Cell Cell--occupied"
                onClick={[Function]}
                onMouseEnter={[Function]}
                onMouseLeave={[Function]}
              >
                <span
                  className="Disk"
                  style={
                    Object {
                      "backgroundColor": "white",
                    }
                  }
                />
              </td>
              <td
                className="Cell Cell--occupied"
                onClick={[Function]}
                onMouseEnter={[Function]}
                onMouseLeave={[Function]}
              >
                <span
                  className="Disk"
                  style={
                    Object {
                      "backgroundColor": "black",
                    }
                  }
                />
              </td>
              <td
                className="Cell Cell--vacant"
                onClick={[Function]}
                onMouseEnter={[Function]}
                onMouseLeave={[Function]}
              >
                <span
                  className="Disk"
                  style={
                    Object {
                      "backgroundColor": null,
                    }
                  }
                />
              </td>
              <td
                className="Cell Cell--vacant"
                onClick={[Function]}
                onMouseEnter={[Function]}
                onMouseLeave={[Function]}
              >
                <span
                  className="Disk"
                  style={
                    Object {
                      "backgroundColor": null,
                    }
                  }
                />
              </td>
              <td
                className="Cell Cell--vacant"
                onClick={[Function]}
                onMouseEnter={[Function]}
                onMouseLeave={[Function]}
              >
                <span
                  className="Disk"
                  style={
                    Object {
                      "backgroundColor": null,
                    }
                  }
                />
              </td>
            </tr>
            <tr>
              <td
                className="Cell Cell--vacant"
                onClick={[Function]}
                onMouseEnter={[Function]}
                onMouseLeave={[Function]}
              >
                <span
                  className="Disk"
                  style={
                    Object {
                      "backgroundColor": null,
                    }
                  }
                />
              </td>
              <td
                className="Cell Cell--vacant"
                onClick={[Function]}
                onMouseEnter={[Function]}
                onMouseLeave={[Function]}
              >
                <span
                  className="Disk"
                  style={
                    Object {
                      "backgroundColor": null,
                    }
                  }
                />
              </td>
              <td
                className="Cell Cell--vacant"
                onClick={[Function]}
                onMouseEnter={[Function]}
                onMouseLeave={[Function]}
              >
                <span
                  className="Disk"
                  style={
                    Object {
                      "backgroundColor": null,
                    }
                  }
                />
              </td>
              <td
                className="Cell Cell--vacant Cell--allowed"
                onClick={[Function]}
                onMouseEnter={[Function]}
                onMouseLeave={[Function]}
              >
                <span
                  className="Disk"
                  style={
                    Object {
                      "backgroundColor": null,
                    }
                  }
                />
              </td>
              <td
                className="Cell Cell--vacant"
                onClick={[Function]}
                onMouseEnter={[Function]}
                onMouseLeave={[Function]}
              >
                <span
                  className="Disk"
                  style={
                    Object {
                      "backgroundColor": null,
                    }
                  }
                />
              </td>
              <td
                className="Cell Cell--vacant"
                onClick={[Function]}
                onMouseEnter={[Function]}
                onMouseLeave={[Function]}
              >
                <span
                  className="Disk"
                  style={
                    Object {
                      "backgroundColor": null,
                    }
                  }
                />
              </td>
              <td
                className="Cell Cell--vacant"
                onClick={[Function]}
                onMouseEnter={[Function]}
                onMouseLeave={[Function]}
              >
                <span
                  className="Disk"
                  style={
                    Object {
                      "backgroundColor": null,
                    }
                  }
                />
              </td>
              <td
                className="Cell Cell--vacant"
                onClick={[Function]}
                onMouseEnter={[Function]}
                onMouseLeave={[Function]}
              >
                <span
                  className="Disk"
                  style={
                    Object {
                      "backgroundColor": null,
                    }
                  }
                />
              </td>
            </tr>
            <tr>
              <td
                className="Cell Cell--vacant"
                onClick={[Function]}
                onMouseEnter={[Function]}
                onMouseLeave={[Function]}
              >
                <span
                  className="Disk"
                  style={
                    Object {
                      "backgroundColor": null,
                    }
                  }
                />
              </td>
              <td
                className="Cell Cell--vacant"
                onClick={[Function]}
                onMouseEnter={[Function]}
                onMouseLeave={[Function]}
              >
                <span
                  className="Disk"
                  style={
                    Object {
                      "backgroundColor": null,
                    }
                  }
                />
              </td>
              <td
                className="Cell Cell--vacant"
                onClick={[Function]}
                onMouseEnter={[Function]}
                onMouseLeave={[Function]}
              >
                <span
                  className="Disk"
                  style={
                    Object {
                      "backgroundColor": null,
                    }
                  }
                />
              </td>
              <td
                className="Cell Cell--vacant"
                onClick={[Function]}
                onMouseEnter={[Function]}
                onMouseLeave={[Function]}
              >
                <span
                  className="Disk"
                  style={
                    Object {
                      "backgroundColor": null,
                    }
                  }
                />
              </td>
              <td
                className="Cell Cell--vacant"
                onClick={[Function]}
                onMouseEnter={[Function]}
                onMouseLeave={[Function]}
              >
                <span
                  className="Disk"
                  style={
                    Object {
                      "backgroundColor": null,
                    }
                  }
                />
              </td>
              <td
                className="Cell Cell--vacant"
                onClick={[Function]}
                onMouseEnter={[Function]}
                onMouseLeave={[Function]}
              >
                <span
                  className="Disk"
                  style={
                    Object {
                      "backgroundColor": null,
                    }
                  }
                />
              </td>
              <td
                className="Cell Cell--vacant"
                onClick={[Function]}
                onMouseEnter={[Function]}
                onMouseLeave={[Function]}
              >
                <span
                  className="Disk"
                  style={
                    Object {
                      "backgroundColor": null,
                    }
                  }
                />
              </td>
              <td
                className="Cell Cell--vacant"
                onClick={[Function]}
                onMouseEnter={[Function]}
                onMouseLeave={[Function]}
              >
                <span
                  className="Disk"
                  style={
                    Object {
                      "backgroundColor": null,
                    }
                  }
                />
              </td>
            </tr>
            <tr>
              <td
                className="Cell Cell--vacant"
                onClick={[Function]}
                onMouseEnter={[Function]}
                onMouseLeave={[Function]}
              >
                <span
                  className="Disk"
                  style={
                    Object {
                      "backgroundColor": null,
                    }
                  }
                />
              </td>
              <td
                className="Cell Cell--vacant"
                onClick={[Function]}
                onMouseEnter={[Function]}
                onMouseLeave={[Function]}
              >
                <span
                  className="Disk"
                  style={
                    Object {
                      "backgroundColor": null,
                    }
                  }
                />
              </td>
              <td
                className="Cell Cell--vacant"
                onClick={[Function]}
                onMouseEnter={[Function]}
                onMouseLeave={[Function]}
              >
                <span
                  className="Disk"
                  style={
                    Object {
                      "backgroundColor": null,
                    }
                  }
                />
              </td>
              <td
                className="Cell Cell--vacant"
                onClick={[Function]}
                onMouseEnter={[Function]}
                onMouseLeave={[Function]}
              >
                <span
                  className="Disk"
                  style={
                    Object {
                      "backgroundColor": null,
                    }
                  }
                />
              </td>
              <td
                className="Cell Cell--vacant"
                onClick={[Function]}
                onMouseEnter={[Function]}
                onMouseLeave={[Function]}
              >
                <span
                  className="Disk"
                  style={
                    Object {
                      "backgroundColor": null,
                    }
                  }
                />
              </td>
              <td
                className="Cell Cell--vacant"
                onClick={[Function]}
                onMouseEnter={[Function]}
                onMouseLeave={[Function]}
              >
                <span
                  className="Disk"
                  style={
                    Object {
                      "backgroundColor": null,
                    }
                  }
                />
              </td>
              <td
                className="Cell Cell--vacant"
                onClick={[Function]}
                onMouseEnter={[Function]}
                onMouseLeave={[Function]}
              >
                <span
                  className="Disk"
                  style={
                    Object {
                      "backgroundColor": null,
                    }
                  }
                />
              </td>
              <td
                className="Cell Cell--vacant"
                onClick={[Function]}
                onMouseEnter={[Function]}
                onMouseLeave={[Function]}
              >
                <span
                  className="Disk"
                  style={
                    Object {
                      "backgroundColor": null,
                    }
                  }
                />
              </td>
            </tr>
          </tbody>
          <tfoot>
            <tr>
              <th
                className="repere"
                scope="col"
              >
                A
              </th>
              <th
                className="repere"
                scope="col"
              >
                B
              </th>
              <th
                className="repere"
                scope="col"
              >
                C
              </th>
              <th
                className="repere"
                scope="col"
              >
                D
              </th>
              <th
                className="repere"
                scope="col"
              >
                E
              </th>
              <th
                className="repere"
                scope="col"
              >
                F
              </th>
              <th
                className="repere"
                scope="col"
              >
                G
              </th>
              <th
                className="repere"
                scope="col"
              >
                H
              </th>
            </tr>
          </tfoot>
        </table>
      </div>
      <aside
        className="turnAndPass"
      >
        <div
          className="tabScore"
        >
          <div
            className="Score Score--black"
          >
            <span>
              2
            </span>
          </div>
          
          <div
            className="Score Score--white"
          >
            <span>
              2
            </span>
          </div>
          
        </div>
        <h3
          className="Game--title"
        >
           Au tour de  
        </h3>
        <button
          className="passTurn"
          onClick={[Function]}
        >
          Passer son tour
        </button>
      </aside>
    </div>
  </article>
</section>
`;
